%YAML 1.1
%TAG !u! tag:unity3d.com,2011:
--- !u!1001 &5921393333310765503
PrefabInstance:
  m_ObjectHideFlags: 0
  serializedVersion: 2
  m_Modification:
    m_TransformParent: {fileID: 0}
    m_Modifications:
    - target: {fileID: 334196732235979444, guid: 158c3db4abcb2fc479bde42a010d48cf,
        type: 3}
      propertyPath: m_Name
      value: Background-Trigger
      objectReference: {fileID: 0}
    - target: {fileID: 2007175811601337058, guid: 158c3db4abcb2fc479bde42a010d48cf,
        type: 3}
      propertyPath: _Color.b
      value: 0.8584906
      objectReference: {fileID: 0}
    - target: {fileID: 2007175811601337058, guid: 158c3db4abcb2fc479bde42a010d48cf,
        type: 3}
      propertyPath: _Color.g
      value: 0.8584906
      objectReference: {fileID: 0}
    - target: {fileID: 2007175811601337058, guid: 158c3db4abcb2fc479bde42a010d48cf,
        type: 3}
      propertyPath: _Color.r
      value: 0.8584906
      objectReference: {fileID: 0}
    - target: {fileID: 2007175811601337058, guid: 158c3db4abcb2fc479bde42a010d48cf,
        type: 3}
      propertyPath: _Texture
      value: 
      objectReference: {fileID: 2800000, guid: f25451e32f38346889b9c5f5f39ffc75, type: 3}
    - target: {fileID: 2435519528410500152, guid: 158c3db4abcb2fc479bde42a010d48cf,
        type: 3}
      propertyPath: _Color.b
      value: 1
      objectReference: {fileID: 0}
    - target: {fileID: 2435519528410500152, guid: 158c3db4abcb2fc479bde42a010d48cf,
        type: 3}
      propertyPath: _Color.g
      value: 1
      objectReference: {fileID: 0}
    - target: {fileID: 2435519528410500152, guid: 158c3db4abcb2fc479bde42a010d48cf,
        type: 3}
      propertyPath: _Color.r
      value: 1
      objectReference: {fileID: 0}
    - target: {fileID: 2435519528410500152, guid: 158c3db4abcb2fc479bde42a010d48cf,
        type: 3}
      propertyPath: _IndicatorActivated
      value: 0
      objectReference: {fileID: 0}
    - target: {fileID: 2540198750766749873, guid: 158c3db4abcb2fc479bde42a010d48cf,
        type: 3}
      propertyPath: m_RootOrder
      value: 0
      objectReference: {fileID: 0}
    - target: {fileID: 2540198750766749873, guid: 158c3db4abcb2fc479bde42a010d48cf,
        type: 3}
      propertyPath: m_LocalScale.x
      value: -0.8
      objectReference: {fileID: 0}
    - target: {fileID: 2540198750766749873, guid: 158c3db4abcb2fc479bde42a010d48cf,
        type: 3}
      propertyPath: m_LocalScale.y
      value: 1
      objectReference: {fileID: 0}
    - target: {fileID: 2540198750766749873, guid: 158c3db4abcb2fc479bde42a010d48cf,
        type: 3}
      propertyPath: m_LocalScale.z
      value: -0.125
      objectReference: {fileID: 0}
    - target: {fileID: 2540198750766749873, guid: 158c3db4abcb2fc479bde42a010d48cf,
        type: 3}
      propertyPath: m_LocalPosition.x
      value: 0
      objectReference: {fileID: 0}
    - target: {fileID: 2540198750766749873, guid: 158c3db4abcb2fc479bde42a010d48cf,
        type: 3}
      propertyPath: m_LocalPosition.y
      value: 0.5
      objectReference: {fileID: 0}
    - target: {fileID: 2540198750766749873, guid: 158c3db4abcb2fc479bde42a010d48cf,
        type: 3}
      propertyPath: m_LocalPosition.z
      value: 2.1
      objectReference: {fileID: 0}
    - target: {fileID: 2540198750766749873, guid: 158c3db4abcb2fc479bde42a010d48cf,
        type: 3}
      propertyPath: m_LocalRotation.w
      value: 1
      objectReference: {fileID: 0}
    - target: {fileID: 2540198750766749873, guid: 158c3db4abcb2fc479bde42a010d48cf,
        type: 3}
      propertyPath: m_LocalRotation.x
      value: -0
      objectReference: {fileID: 0}
    - target: {fileID: 2540198750766749873, guid: 158c3db4abcb2fc479bde42a010d48cf,
        type: 3}
      propertyPath: m_LocalRotation.y
      value: -0
      objectReference: {fileID: 0}
    - target: {fileID: 2540198750766749873, guid: 158c3db4abcb2fc479bde42a010d48cf,
        type: 3}
      propertyPath: m_LocalRotation.z
      value: -0
      objectReference: {fileID: 0}
    - target: {fileID: 2540198750766749873, guid: 158c3db4abcb2fc479bde42a010d48cf,
        type: 3}
      propertyPath: m_LocalEulerAnglesHint.x
      value: 0
      objectReference: {fileID: 0}
    - target: {fileID: 2540198750766749873, guid: 158c3db4abcb2fc479bde42a010d48cf,
        type: 3}
      propertyPath: m_LocalEulerAnglesHint.y
      value: 0
      objectReference: {fileID: 0}
    - target: {fileID: 2540198750766749873, guid: 158c3db4abcb2fc479bde42a010d48cf,
        type: 3}
      propertyPath: m_LocalEulerAnglesHint.z
      value: 0
      objectReference: {fileID: 0}
    - target: {fileID: 2540198750766749874, guid: 158c3db4abcb2fc479bde42a010d48cf,
        type: 3}
      propertyPath: m_Name
      value: WhiteIconButton Variant
      objectReference: {fileID: 0}
    - target: {fileID: 2540198751869769216, guid: 158c3db4abcb2fc479bde42a010d48cf,
        type: 3}
      propertyPath: m_text
      value: 
      objectReference: {fileID: 0}
    - target: {fileID: 3257369462913188737, guid: 158c3db4abcb2fc479bde42a010d48cf,
        type: 3}
      propertyPath: m_Enabled
      value: 1
      objectReference: {fileID: 0}
    - target: {fileID: 3257369462913188737, guid: 158c3db4abcb2fc479bde42a010d48cf,
        type: 3}
      propertyPath: m_Materials.Array.data[0]
      value: 
      objectReference: {fileID: 2100000, guid: 39e3efc5e1374084995ab1dc4e01dc34, type: 2}
    - target: {fileID: 4845126748508963122, guid: 158c3db4abcb2fc479bde42a010d48cf,
        type: 3}
      propertyPath: m_LocalScale.x
      value: 10
      objectReference: {fileID: 0}
    - target: {fileID: 4845126748508963122, guid: 158c3db4abcb2fc479bde42a010d48cf,
        type: 3}
      propertyPath: m_LocalScale.z
      value: 10
      objectReference: {fileID: 0}
    m_RemovedComponents: []
  m_SourcePrefab: {fileID: 100100000, guid: 158c3db4abcb2fc479bde42a010d48cf, type: 3}
