%YAML 1.1
%TAG !u! tag:unity3d.com,2011:
--- !u!78 &1
TagManager:
  serializedVersion: 2
  tags:
  - Scrollbar
  - SliderCutPosX
  - SliderCutPosY
  - SliderCutRotZ
  - SliderCutRotY
  - Embryon
  - Create
  - UIManager
  - TextureCam
  layers:
  - Default
  - TransparentFX
  - Ignore Raycast
  - 
  - Water
  - UI
  - TeleportationLayer
  - VROnly
  - LineageButton
  - LineageViewer
  - GridLine
  - TextFigure
  - LastHit
  - DesktopOnly
  - VRONLY
  - CentralGaze
  - DeformationGizmo
  - 
  - 
  - 
  - 
  - 
  - 
  - 
  - 
  - 
  - 
  - 
  - 
  - 
  - 
  - 
  m_SortingLayers:
  - name: Default
    uniqueID: 0
    locked: 0
