%YAML 1.1
%TAG !u! tag:unity3d.com,2011:
--- !u!1001 &2984903964382920309
PrefabInstance:
  m_ObjectHideFlags: 0
  serializedVersion: 2
  m_Modification:
    m_TransformParent: {fileID: 0}
    m_Modifications:
    - target: {fileID: 6925140231107430364, guid: fe6fb50595e575d469c472392dab3f98,
        type: 3}
      propertyPath: _Texture
      value: 
      objectReference: {fileID: 2800000, guid: b7dd5fdc0da8b964e9422428dfb24dc8, type: 3}
    - target: {fileID: 7104189870479004501, guid: fe6fb50595e575d469c472392dab3f98,
        type: 3}
      propertyPath: m_RootOrder
      value: 0
      objectReference: {fileID: 0}
    - target: {fileID: 7104189870479004501, guid: fe6fb50595e575d469c472392dab3f98,
        type: 3}
      propertyPath: m_LocalPosition.x
      value: 0
      objectReference: {fileID: 0}
    - target: {fileID: 7104189870479004501, guid: fe6fb50595e575d469c472392dab3f98,
        type: 3}
      propertyPath: m_LocalPosition.y
      value: 0
      objectReference: {fileID: 0}
    - target: {fileID: 7104189870479004501, guid: fe6fb50595e575d469c472392dab3f98,
        type: 3}
      propertyPath: m_LocalPosition.z
      value: 0
      objectReference: {fileID: 0}
    - target: {fileID: 7104189870479004501, guid: fe6fb50595e575d469c472392dab3f98,
        type: 3}
      propertyPath: m_LocalRotation.w
      value: 1
      objectReference: {fileID: 0}
    - target: {fileID: 7104189870479004501, guid: fe6fb50595e575d469c472392dab3f98,
        type: 3}
      propertyPath: m_LocalRotation.x
      value: -0
      objectReference: {fileID: 0}
    - target: {fileID: 7104189870479004501, guid: fe6fb50595e575d469c472392dab3f98,
        type: 3}
      propertyPath: m_LocalRotation.y
      value: -0
      objectReference: {fileID: 0}
    - target: {fileID: 7104189870479004501, guid: fe6fb50595e575d469c472392dab3f98,
        type: 3}
      propertyPath: m_LocalRotation.z
      value: -0
      objectReference: {fileID: 0}
    - target: {fileID: 7104189870479004501, guid: fe6fb50595e575d469c472392dab3f98,
        type: 3}
      propertyPath: m_LocalEulerAnglesHint.x
      value: 0
      objectReference: {fileID: 0}
    - target: {fileID: 7104189870479004501, guid: fe6fb50595e575d469c472392dab3f98,
        type: 3}
      propertyPath: m_LocalEulerAnglesHint.y
      value: 0
      objectReference: {fileID: 0}
    - target: {fileID: 7104189870479004501, guid: fe6fb50595e575d469c472392dab3f98,
        type: 3}
      propertyPath: m_LocalEulerAnglesHint.z
      value: 0
      objectReference: {fileID: 0}
    - target: {fileID: 7104189870479004502, guid: fe6fb50595e575d469c472392dab3f98,
        type: 3}
      propertyPath: m_Name
      value: LeftArrowXRButton
      objectReference: {fileID: 0}
    m_RemovedComponents: []
  m_SourcePrefab: {fileID: 100100000, guid: fe6fb50595e575d469c472392dab3f98, type: 3}
