%YAML 1.1
%TAG !u! tag:unity3d.com,2011:
--- !u!1001 &5954771390390722566
PrefabInstance:
  m_ObjectHideFlags: 0
  serializedVersion: 2
  m_Modification:
    m_TransformParent: {fileID: 0}
    m_Modifications:
    - target: {fileID: 2540198750766749873, guid: 545286f176625874eb6a71024512b832,
        type: 3}
      propertyPath: m_RootOrder
      value: 0
      objectReference: {fileID: 0}
    - target: {fileID: 2540198750766749873, guid: 545286f176625874eb6a71024512b832,
        type: 3}
      propertyPath: m_LocalPosition.x
      value: 0
      objectReference: {fileID: 0}
    - target: {fileID: 2540198750766749873, guid: 545286f176625874eb6a71024512b832,
        type: 3}
      propertyPath: m_LocalPosition.y
      value: 0
      objectReference: {fileID: 0}
    - target: {fileID: 2540198750766749873, guid: 545286f176625874eb6a71024512b832,
        type: 3}
      propertyPath: m_LocalPosition.z
      value: 0
      objectReference: {fileID: 0}
    - target: {fileID: 2540198750766749873, guid: 545286f176625874eb6a71024512b832,
        type: 3}
      propertyPath: m_LocalRotation.w
      value: 1
      objectReference: {fileID: 0}
    - target: {fileID: 2540198750766749873, guid: 545286f176625874eb6a71024512b832,
        type: 3}
      propertyPath: m_LocalRotation.x
      value: 0
      objectReference: {fileID: 0}
    - target: {fileID: 2540198750766749873, guid: 545286f176625874eb6a71024512b832,
        type: 3}
      propertyPath: m_LocalRotation.y
      value: 0
      objectReference: {fileID: 0}
    - target: {fileID: 2540198750766749873, guid: 545286f176625874eb6a71024512b832,
        type: 3}
      propertyPath: m_LocalRotation.z
      value: 0
      objectReference: {fileID: 0}
    - target: {fileID: 2540198750766749873, guid: 545286f176625874eb6a71024512b832,
        type: 3}
      propertyPath: m_LocalEulerAnglesHint.x
      value: 0
      objectReference: {fileID: 0}
    - target: {fileID: 2540198750766749873, guid: 545286f176625874eb6a71024512b832,
        type: 3}
      propertyPath: m_LocalEulerAnglesHint.y
      value: 0
      objectReference: {fileID: 0}
    - target: {fileID: 2540198750766749873, guid: 545286f176625874eb6a71024512b832,
        type: 3}
      propertyPath: m_LocalEulerAnglesHint.z
      value: 0
      objectReference: {fileID: 0}
    - target: {fileID: 2540198750766749874, guid: 545286f176625874eb6a71024512b832,
        type: 3}
      propertyPath: m_Name
      value: XRToggleButtonSubMenu
      objectReference: {fileID: 0}
    - target: {fileID: 5494632846165866395, guid: 545286f176625874eb6a71024512b832,
        type: 3}
      propertyPath: _Color.b
      value: 0.972549
      objectReference: {fileID: 0}
    - target: {fileID: 5494632846165866395, guid: 545286f176625874eb6a71024512b832,
        type: 3}
      propertyPath: _Color.g
      value: 0.76862746
      objectReference: {fileID: 0}
    - target: {fileID: 5494632846165866395, guid: 545286f176625874eb6a71024512b832,
        type: 3}
      propertyPath: _Color.r
      value: 0.40392157
      objectReference: {fileID: 0}
    - target: {fileID: 5494632846165866395, guid: 545286f176625874eb6a71024512b832,
        type: 3}
      propertyPath: _BackgroundActiveColor.b
      value: 1
      objectReference: {fileID: 0}
    - target: {fileID: 5494632846165866395, guid: 545286f176625874eb6a71024512b832,
        type: 3}
      propertyPath: _BackgroundActiveColor.g
      value: 0.8745098
      objectReference: {fileID: 0}
    - target: {fileID: 5494632846165866395, guid: 545286f176625874eb6a71024512b832,
        type: 3}
      propertyPath: _BackgroundActiveColor.r
      value: 0.64705884
      objectReference: {fileID: 0}
    - target: {fileID: 5494632846165866395, guid: 545286f176625874eb6a71024512b832,
        type: 3}
      propertyPath: _BackgroundDefaultColor.b
      value: 0.7647059
      objectReference: {fileID: 0}
    - target: {fileID: 5494632846165866395, guid: 545286f176625874eb6a71024512b832,
        type: 3}
      propertyPath: _BackgroundDefaultColor.g
      value: 0.63529414
      objectReference: {fileID: 0}
    - target: {fileID: 5494632846165866395, guid: 545286f176625874eb6a71024512b832,
        type: 3}
      propertyPath: _BackgroundDefaultColor.r
      value: 0.2
      objectReference: {fileID: 0}
    m_RemovedComponents: []
  m_SourcePrefab: {fileID: 100100000, guid: 545286f176625874eb6a71024512b832, type: 3}
