%YAML 1.1
%TAG !u! tag:unity3d.com,2011:
--- !u!1001 &3825276233647901910
PrefabInstance:
  m_ObjectHideFlags: 0
  serializedVersion: 2
  m_Modification:
    m_TransformParent: {fileID: 0}
    m_Modifications:
    - target: {fileID: 1625534820496612412, guid: 558a06e03069340868af32a249c095c2,
        type: 3}
      propertyPath: m_IsActive
      value: 0
      objectReference: {fileID: 0}
    - target: {fileID: 1630960978289161888, guid: 558a06e03069340868af32a249c095c2,
        type: 3}
      propertyPath: m_Pivot.x
      value: 1
      objectReference: {fileID: 0}
    - target: {fileID: 1630960978289161888, guid: 558a06e03069340868af32a249c095c2,
        type: 3}
      propertyPath: m_Pivot.y
      value: 0
      objectReference: {fileID: 0}
    - target: {fileID: 1630960978289161888, guid: 558a06e03069340868af32a249c095c2,
        type: 3}
      propertyPath: m_RootOrder
      value: 0
      objectReference: {fileID: 0}
    - target: {fileID: 1630960978289161888, guid: 558a06e03069340868af32a249c095c2,
        type: 3}
      propertyPath: m_AnchorMax.x
      value: 1
      objectReference: {fileID: 0}
    - target: {fileID: 1630960978289161888, guid: 558a06e03069340868af32a249c095c2,
        type: 3}
      propertyPath: m_AnchorMax.y
      value: 0
      objectReference: {fileID: 0}
    - target: {fileID: 1630960978289161888, guid: 558a06e03069340868af32a249c095c2,
        type: 3}
      propertyPath: m_AnchorMin.x
      value: 1
      objectReference: {fileID: 0}
    - target: {fileID: 1630960978289161888, guid: 558a06e03069340868af32a249c095c2,
        type: 3}
      propertyPath: m_AnchorMin.y
      value: 0
      objectReference: {fileID: 0}
    - target: {fileID: 1630960978289161888, guid: 558a06e03069340868af32a249c095c2,
        type: 3}
      propertyPath: m_SizeDelta.x
      value: 183.0842
      objectReference: {fileID: 0}
    - target: {fileID: 1630960978289161888, guid: 558a06e03069340868af32a249c095c2,
        type: 3}
      propertyPath: m_SizeDelta.y
      value: 21.3493
      objectReference: {fileID: 0}
    - target: {fileID: 1630960978289161888, guid: 558a06e03069340868af32a249c095c2,
        type: 3}
      propertyPath: m_LocalScale.x
      value: 1
      objectReference: {fileID: 0}
    - target: {fileID: 1630960978289161888, guid: 558a06e03069340868af32a249c095c2,
        type: 3}
      propertyPath: m_LocalScale.y
      value: 1
      objectReference: {fileID: 0}
    - target: {fileID: 1630960978289161888, guid: 558a06e03069340868af32a249c095c2,
        type: 3}
      propertyPath: m_LocalPosition.x
      value: 0
      objectReference: {fileID: 0}
    - target: {fileID: 1630960978289161888, guid: 558a06e03069340868af32a249c095c2,
        type: 3}
      propertyPath: m_LocalPosition.y
      value: 0
      objectReference: {fileID: 0}
    - target: {fileID: 1630960978289161888, guid: 558a06e03069340868af32a249c095c2,
        type: 3}
      propertyPath: m_LocalPosition.z
      value: 0
      objectReference: {fileID: 0}
    - target: {fileID: 1630960978289161888, guid: 558a06e03069340868af32a249c095c2,
        type: 3}
      propertyPath: m_LocalRotation.w
      value: 1
      objectReference: {fileID: 0}
    - target: {fileID: 1630960978289161888, guid: 558a06e03069340868af32a249c095c2,
        type: 3}
      propertyPath: m_LocalRotation.x
      value: 0
      objectReference: {fileID: 0}
    - target: {fileID: 1630960978289161888, guid: 558a06e03069340868af32a249c095c2,
        type: 3}
      propertyPath: m_LocalRotation.y
      value: 0
      objectReference: {fileID: 0}
    - target: {fileID: 1630960978289161888, guid: 558a06e03069340868af32a249c095c2,
        type: 3}
      propertyPath: m_LocalRotation.z
      value: 0
      objectReference: {fileID: 0}
    - target: {fileID: 1630960978289161888, guid: 558a06e03069340868af32a249c095c2,
        type: 3}
      propertyPath: m_AnchoredPosition.x
      value: 201.31436
      objectReference: {fileID: 0}
    - target: {fileID: 1630960978289161888, guid: 558a06e03069340868af32a249c095c2,
        type: 3}
      propertyPath: m_AnchoredPosition.y
      value: 21.426697
      objectReference: {fileID: 0}
    - target: {fileID: 1630960978289161888, guid: 558a06e03069340868af32a249c095c2,
        type: 3}
      propertyPath: m_LocalEulerAnglesHint.x
      value: 0
      objectReference: {fileID: 0}
    - target: {fileID: 1630960978289161888, guid: 558a06e03069340868af32a249c095c2,
        type: 3}
      propertyPath: m_LocalEulerAnglesHint.y
      value: 0
      objectReference: {fileID: 0}
    - target: {fileID: 1630960978289161888, guid: 558a06e03069340868af32a249c095c2,
        type: 3}
      propertyPath: m_LocalEulerAnglesHint.z
      value: 0
      objectReference: {fileID: 0}
    - target: {fileID: 1771426806898084746, guid: 558a06e03069340868af32a249c095c2,
        type: 3}
      propertyPath: m_AnchorMax.y
      value: 0
      objectReference: {fileID: 0}
    - target: {fileID: 2006203922585866049, guid: 558a06e03069340868af32a249c095c2,
        type: 3}
      propertyPath: m_Color.b
      value: 1
      objectReference: {fileID: 0}
    - target: {fileID: 2006203922585866049, guid: 558a06e03069340868af32a249c095c2,
        type: 3}
      propertyPath: m_Color.g
      value: 0.8235294
      objectReference: {fileID: 0}
    - target: {fileID: 2006203922585866049, guid: 558a06e03069340868af32a249c095c2,
        type: 3}
      propertyPath: m_Color.r
      value: 0.38039216
      objectReference: {fileID: 0}
    - target: {fileID: 2016078008072293723, guid: 558a06e03069340868af32a249c095c2,
        type: 3}
      propertyPath: m_Name
      value: Double slider
      objectReference: {fileID: 0}
    - target: {fileID: 4231211998931484682, guid: 558a06e03069340868af32a249c095c2,
        type: 3}
      propertyPath: m_Colors.m_NormalColor.g
      value: 0.8235294
      objectReference: {fileID: 0}
    - target: {fileID: 4231211998931484682, guid: 558a06e03069340868af32a249c095c2,
        type: 3}
      propertyPath: m_Colors.m_NormalColor.r
      value: 0.38039216
      objectReference: {fileID: 0}
    - target: {fileID: 4231211998931484682, guid: 558a06e03069340868af32a249c095c2,
        type: 3}
      propertyPath: m_Colors.m_PressedColor.b
      value: 0.7254902
      objectReference: {fileID: 0}
    - target: {fileID: 4231211998931484682, guid: 558a06e03069340868af32a249c095c2,
        type: 3}
      propertyPath: m_Colors.m_PressedColor.g
      value: 0.69411767
      objectReference: {fileID: 0}
    - target: {fileID: 4231211998931484682, guid: 558a06e03069340868af32a249c095c2,
        type: 3}
      propertyPath: m_Colors.m_PressedColor.r
      value: 0.3529412
      objectReference: {fileID: 0}
    - target: {fileID: 4231211998931484682, guid: 558a06e03069340868af32a249c095c2,
        type: 3}
      propertyPath: m_Colors.m_SelectedColor.b
      value: 0.9529412
      objectReference: {fileID: 0}
    - target: {fileID: 4231211998931484682, guid: 558a06e03069340868af32a249c095c2,
        type: 3}
      propertyPath: m_Colors.m_SelectedColor.g
      value: 0.9098039
      objectReference: {fileID: 0}
    - target: {fileID: 4231211998931484682, guid: 558a06e03069340868af32a249c095c2,
        type: 3}
      propertyPath: m_Colors.m_SelectedColor.r
      value: 0.47058824
      objectReference: {fileID: 0}
    - target: {fileID: 4231211998931484682, guid: 558a06e03069340868af32a249c095c2,
        type: 3}
      propertyPath: m_Colors.m_HighlightedColor.b
      value: 0.8117647
      objectReference: {fileID: 0}
    - target: {fileID: 4231211998931484682, guid: 558a06e03069340868af32a249c095c2,
        type: 3}
      propertyPath: m_Colors.m_HighlightedColor.g
      value: 0.7764706
      objectReference: {fileID: 0}
    - target: {fileID: 4231211998931484682, guid: 558a06e03069340868af32a249c095c2,
        type: 3}
      propertyPath: m_Colors.m_HighlightedColor.r
      value: 0.4
      objectReference: {fileID: 0}
    - target: {fileID: 4265323104549065951, guid: 558a06e03069340868af32a249c095c2,
        type: 3}
      propertyPath: m_AnchorMax.x
      value: 0
      objectReference: {fileID: 0}
    - target: {fileID: 4265323104549065951, guid: 558a06e03069340868af32a249c095c2,
        type: 3}
      propertyPath: m_AnchorMax.y
      value: 0
      objectReference: {fileID: 0}
    - target: {fileID: 4265323104549065951, guid: 558a06e03069340868af32a249c095c2,
        type: 3}
      propertyPath: m_AnchorMin.x
      value: 0
      objectReference: {fileID: 0}
    - target: {fileID: 4954826533517830351, guid: 558a06e03069340868af32a249c095c2,
        type: 3}
      propertyPath: m_Color.b
      value: 1
      objectReference: {fileID: 0}
    - target: {fileID: 4954826533517830351, guid: 558a06e03069340868af32a249c095c2,
        type: 3}
      propertyPath: m_Color.g
      value: 0.8392157
      objectReference: {fileID: 0}
    - target: {fileID: 4954826533517830351, guid: 558a06e03069340868af32a249c095c2,
        type: 3}
      propertyPath: m_Color.r
      value: 0.57254905
      objectReference: {fileID: 0}
    - target: {fileID: 5864048103903956621, guid: 558a06e03069340868af32a249c095c2,
        type: 3}
      propertyPath: m_Color.a
      value: 1
      objectReference: {fileID: 0}
    - target: {fileID: 5864048103903956621, guid: 558a06e03069340868af32a249c095c2,
        type: 3}
      propertyPath: m_Color.b
      value: 1
      objectReference: {fileID: 0}
    - target: {fileID: 5864048103903956621, guid: 558a06e03069340868af32a249c095c2,
        type: 3}
      propertyPath: m_Color.g
      value: 0.8235294
      objectReference: {fileID: 0}
    - target: {fileID: 5864048103903956621, guid: 558a06e03069340868af32a249c095c2,
        type: 3}
      propertyPath: m_Color.r
      value: 0.38039216
      objectReference: {fileID: 0}
    - target: {fileID: 7252802891138717688, guid: 558a06e03069340868af32a249c095c2,
        type: 3}
      propertyPath: m_IsActive
      value: 0
      objectReference: {fileID: 0}
    - target: {fileID: 7634323558968460096, guid: 558a06e03069340868af32a249c095c2,
        type: 3}
      propertyPath: m_AnchorMax.x
      value: 0
      objectReference: {fileID: 0}
    - target: {fileID: 7634323558968460096, guid: 558a06e03069340868af32a249c095c2,
        type: 3}
      propertyPath: m_AnchorMax.y
      value: 1
      objectReference: {fileID: 0}
    - target: {fileID: 7634323558968460096, guid: 558a06e03069340868af32a249c095c2,
        type: 3}
      propertyPath: m_AnchorMin.x
      value: 0
      objectReference: {fileID: 0}
    - target: {fileID: 7634323558968460096, guid: 558a06e03069340868af32a249c095c2,
        type: 3}
      propertyPath: m_AnchorMin.y
      value: 1
      objectReference: {fileID: 0}
    - target: {fileID: 7634323558968460096, guid: 558a06e03069340868af32a249c095c2,
        type: 3}
      propertyPath: m_AnchoredPosition.x
      value: 180.4
      objectReference: {fileID: 0}
    - target: {fileID: 7634323558968460096, guid: 558a06e03069340868af32a249c095c2,
        type: 3}
      propertyPath: m_AnchoredPosition.y
      value: -20
      objectReference: {fileID: 0}
    - target: {fileID: 7882664769917001333, guid: 558a06e03069340868af32a249c095c2,
        type: 3}
      propertyPath: m_AnchorMax.x
      value: 0
      objectReference: {fileID: 0}
    - target: {fileID: 7882664769917001333, guid: 558a06e03069340868af32a249c095c2,
        type: 3}
      propertyPath: m_AnchorMax.y
      value: 0
      objectReference: {fileID: 0}
    - target: {fileID: 7905137156608468053, guid: 558a06e03069340868af32a249c095c2,
        type: 3}
      propertyPath: m_Color.a
      value: 1
      objectReference: {fileID: 0}
    - target: {fileID: 7905137156608468053, guid: 558a06e03069340868af32a249c095c2,
        type: 3}
      propertyPath: m_Color.b
      value: 1
      objectReference: {fileID: 0}
    - target: {fileID: 7905137156608468053, guid: 558a06e03069340868af32a249c095c2,
        type: 3}
      propertyPath: m_Color.g
      value: 1
      objectReference: {fileID: 0}
    - target: {fileID: 7905137156608468053, guid: 558a06e03069340868af32a249c095c2,
        type: 3}
      propertyPath: m_Color.r
      value: 1
      objectReference: {fileID: 0}
    m_RemovedComponents: []
  m_SourcePrefab: {fileID: 100100000, guid: 558a06e03069340868af32a249c095c2, type: 3}
