%YAML 1.1
%TAG !u! tag:unity3d.com,2011:
--- !u!21 &2100000
Material:
  serializedVersion: 6
  m_ObjectHideFlags: 0
  m_CorrespondingSourceObject: {fileID: 0}
  m_PrefabInstance: {fileID: 0}
  m_PrefabAsset: {fileID: 0}
  m_Name: Custom_stripes2colors
  m_Shader: {fileID: 4800000, guid: 082aca31a7b1df2489765e3877aadfce, type: 3}
  m_ShaderKeywords: 
  m_LightmapFlags: 4
  m_EnableInstancingVariants: 0
  m_DoubleSidedGI: 0
  m_CustomRenderQueue: -1
  stringTagMap: {}
  disabledShaderPasses: []
  m_SavedProperties:
    serializedVersion: 3
    m_TexEnvs: []
    m_Floats:
    - _DoClip: 0
    - _Scale: 0.15
    - _Thickness: 0.05
    - _XViewPlan: 1
    - _YViewPlan: 1
    - _ZViewPlan: 1
    m_Colors:
    - _Color1: {r: 0.9528302, g: 0, b: 0, a: 1}
    - _Color2: {r: 0, g: 0, b: 0, a: 0}
    - _XClippingPlane: {r: 0, g: 0, b: 0, a: 0}
    - _YClippingPlane: {r: 0, g: 0, b: 0, a: 0}
    - _ZClippingPlane: {r: 0, g: 0, b: 0, a: 0}
  m_BuildTextureStacks: []
