%YAML 1.1
%TAG !u! tag:unity3d.com,2011:
--- !u!21 &2100000
Material:
  serializedVersion: 6
  m_ObjectHideFlags: 0
  m_CorrespondingSourceObject: {fileID: 0}
  m_PrefabInstance: {fileID: 0}
  m_PrefabAsset: {fileID: 0}
  m_Name: Custom_2colors_noise_display
  m_Shader: {fileID: 4800000, guid: fda5d054c49b7cb4185667fe68709b2c, type: 3}
  m_ShaderKeywords: 
  m_LightmapFlags: 4
  m_EnableInstancingVariants: 0
  m_DoubleSidedGI: 0
  m_CustomRenderQueue: -1
  stringTagMap: {}
  disabledShaderPasses: []
  m_SavedProperties:
    serializedVersion: 3
    m_TexEnvs: []
    m_Floats:
    - _DoClip: 0
    - _Scale: 3.92
    - _Thickness: 0
    - _XViewPlan: 1
    - _YViewPlan: 1
    - _ZViewPlan: 1
    m_Colors:
    - _Color1: {r: 0.13519046, g: 0.18478227, b: 0.9245283, a: 1}
    - _Color2: {r: 1, g: 0.9622972, b: 0, a: 0}
    - _XClippingPlane: {r: 0, g: 0, b: 0, a: 0}
    - _YClippingPlane: {r: 0, g: 0, b: 0, a: 0}
    - _ZClippingPlane: {r: 0, g: 0, b: 0, a: 0}
  m_BuildTextureStacks: []
