%YAML 1.1
%TAG !u! tag:unity3d.com,2011:
--- !u!1001 &3646619948189727516
PrefabInstance:
  m_ObjectHideFlags: 0
  serializedVersion: 2
  m_Modification:
    m_TransformParent: {fileID: 0}
    m_Modifications:
    - target: {fileID: 1978281438918100398, guid: f2992fa5b2776d84d8e123cc0a539a03,
        type: 3}
      propertyPath: RGBA.b
      value: 1
      objectReference: {fileID: 0}
    - target: {fileID: 1978281438918100398, guid: f2992fa5b2776d84d8e123cc0a539a03,
        type: 3}
      propertyPath: RGBA.g
      value: 0
      objectReference: {fileID: 0}
    - target: {fileID: 1978281438918100398, guid: f2992fa5b2776d84d8e123cc0a539a03,
        type: 3}
      propertyPath: RGBA.r
      value: 0.9556842
      objectReference: {fileID: 0}
    - target: {fileID: 1978281438918100398, guid: f2992fa5b2776d84d8e123cc0a539a03,
        type: 3}
      propertyPath: Metallic
      value: 0.5
      objectReference: {fileID: 0}
    - target: {fileID: 1978281438918100398, guid: f2992fa5b2776d84d8e123cc0a539a03,
        type: 3}
      propertyPath: ColorOverride
      value: 1
      objectReference: {fileID: 0}
    - target: {fileID: 1978281438918100398, guid: f2992fa5b2776d84d8e123cc0a539a03,
        type: 3}
      propertyPath: properties.Array.data[0].value
      value: 1
      objectReference: {fileID: 0}
    - target: {fileID: 1978281438918100398, guid: f2992fa5b2776d84d8e123cc0a539a03,
        type: 3}
      propertyPath: properties.Array.data[1].value
      value: 0
      objectReference: {fileID: 0}
    - target: {fileID: 6703292716880566519, guid: f2992fa5b2776d84d8e123cc0a539a03,
        type: 3}
      propertyPath: m_RootOrder
      value: 0
      objectReference: {fileID: 0}
    - target: {fileID: 6703292716880566519, guid: f2992fa5b2776d84d8e123cc0a539a03,
        type: 3}
      propertyPath: m_LocalPosition.x
      value: 0
      objectReference: {fileID: 0}
    - target: {fileID: 6703292716880566519, guid: f2992fa5b2776d84d8e123cc0a539a03,
        type: 3}
      propertyPath: m_LocalPosition.y
      value: 0
      objectReference: {fileID: 0}
    - target: {fileID: 6703292716880566519, guid: f2992fa5b2776d84d8e123cc0a539a03,
        type: 3}
      propertyPath: m_LocalPosition.z
      value: 0
      objectReference: {fileID: 0}
    - target: {fileID: 6703292716880566519, guid: f2992fa5b2776d84d8e123cc0a539a03,
        type: 3}
      propertyPath: m_LocalRotation.w
      value: 1
      objectReference: {fileID: 0}
    - target: {fileID: 6703292716880566519, guid: f2992fa5b2776d84d8e123cc0a539a03,
        type: 3}
      propertyPath: m_LocalRotation.x
      value: 0
      objectReference: {fileID: 0}
    - target: {fileID: 6703292716880566519, guid: f2992fa5b2776d84d8e123cc0a539a03,
        type: 3}
      propertyPath: m_LocalRotation.y
      value: 0
      objectReference: {fileID: 0}
    - target: {fileID: 6703292716880566519, guid: f2992fa5b2776d84d8e123cc0a539a03,
        type: 3}
      propertyPath: m_LocalRotation.z
      value: 0
      objectReference: {fileID: 0}
    - target: {fileID: 6703292716880566519, guid: f2992fa5b2776d84d8e123cc0a539a03,
        type: 3}
      propertyPath: m_LocalEulerAnglesHint.x
      value: 0
      objectReference: {fileID: 0}
    - target: {fileID: 6703292716880566519, guid: f2992fa5b2776d84d8e123cc0a539a03,
        type: 3}
      propertyPath: m_LocalEulerAnglesHint.y
      value: 0
      objectReference: {fileID: 0}
    - target: {fileID: 6703292716880566519, guid: f2992fa5b2776d84d8e123cc0a539a03,
        type: 3}
      propertyPath: m_LocalEulerAnglesHint.z
      value: 0
      objectReference: {fileID: 0}
    - target: {fileID: 7843201442796778735, guid: f2992fa5b2776d84d8e123cc0a539a03,
        type: 3}
      propertyPath: m_Name
      value: BloodCell2
      objectReference: {fileID: 0}
    m_RemovedComponents: []
  m_SourcePrefab: {fileID: 100100000, guid: f2992fa5b2776d84d8e123cc0a539a03, type: 3}
