%YAML 1.1
%TAG !u! tag:unity3d.com,2011:
--- !u!1 &1584276900
GameObject:
  m_ObjectHideFlags: 0
  m_CorrespondingSourceObject: {fileID: 0}
  m_PrefabInstance: {fileID: 0}
  m_PrefabAsset: {fileID: 0}
  serializedVersion: 6
  m_Component:
  - component: {fileID: 1584276901}
  - component: {fileID: 1584276903}
  - component: {fileID: 1584276902}
  m_Layer: 5
  m_Name: ConsoleText
  m_TagString: Untagged
  m_Icon: {fileID: 0}
  m_NavMeshLayer: 0
  m_StaticEditorFlags: 0
  m_IsActive: 1
--- !u!224 &1584276901
RectTransform:
  m_ObjectHideFlags: 0
  m_CorrespondingSourceObject: {fileID: 0}
  m_PrefabInstance: {fileID: 0}
  m_PrefabAsset: {fileID: 0}
  m_GameObject: {fileID: 1584276900}
  m_LocalRotation: {x: 0, y: 0, z: 0, w: 1}
  m_LocalPosition: {x: 0, y: 0, z: 0}
  m_LocalScale: {x: 1, y: 1, z: 1}
  m_Children: []
  m_Father: {fileID: 2346234735198553461}
  m_RootOrder: 0
  m_LocalEulerAnglesHint: {x: 0, y: 0, z: 0}
  m_AnchorMin: {x: 0, y: 0}
  m_AnchorMax: {x: 0, y: 0}
  m_AnchoredPosition: {x: 0, y: 0}
  m_SizeDelta: {x: 0, y: 0}
  m_Pivot: {x: 0.5, y: 0.5}
--- !u!222 &1584276903
CanvasRenderer:
  m_ObjectHideFlags: 0
  m_CorrespondingSourceObject: {fileID: 0}
  m_PrefabInstance: {fileID: 0}
  m_PrefabAsset: {fileID: 0}
  m_GameObject: {fileID: 1584276900}
  m_CullTransparentMesh: 1
--- !u!114 &1584276902
MonoBehaviour:
  m_ObjectHideFlags: 0
  m_CorrespondingSourceObject: {fileID: 0}
  m_PrefabInstance: {fileID: 0}
  m_PrefabAsset: {fileID: 0}
  m_GameObject: {fileID: 1584276900}
  m_Enabled: 1
  m_EditorHideFlags: 0
  m_Script: {fileID: 11500000, guid: 5f7201a12d95ffc409449d95f23cf332, type: 3}
  m_Name: 
  m_EditorClassIdentifier: 
  m_Material: {fileID: 0}
  m_Color: {r: 1, g: 1, b: 1, a: 1}
  m_RaycastTarget: 1
  m_RaycastPadding: {x: 0, y: 0, z: 0, w: 0}
  m_Maskable: 1
  m_OnCullStateChanged:
    m_PersistentCalls:
      m_Calls: []
  m_FontData:
    m_Font: {fileID: 10102, guid: 0000000000000000e000000000000000, type: 0}
    m_FontSize: 13
    m_FontStyle: 0
    m_BestFit: 0
    m_MinSize: 1
    m_MaxSize: 40
    m_Alignment: 0
    m_AlignByGeometry: 0
    m_RichText: 1
    m_HorizontalOverflow: 0
    m_VerticalOverflow: 0
    m_LineSpacing: 1
  m_Text: 
--- !u!1001 &4431243214693232130
PrefabInstance:
  m_ObjectHideFlags: 0
  serializedVersion: 2
  m_Modification:
    m_TransformParent: {fileID: 0}
    m_Modifications:
    - target: {fileID: 101662295023829147, guid: f6a06c1fb7e75e5428800b34f3de01f3,
        type: 3}
      propertyPath: m_Padding.m_Top
      value: 5
      objectReference: {fileID: 0}
    - target: {fileID: 101662295023829147, guid: f6a06c1fb7e75e5428800b34f3de01f3,
        type: 3}
      propertyPath: m_ChildAlignment
      value: 8
      objectReference: {fileID: 0}
    - target: {fileID: 101662295023829147, guid: f6a06c1fb7e75e5428800b34f3de01f3,
        type: 3}
      propertyPath: m_Padding.m_Left
      value: 5
      objectReference: {fileID: 0}
    - target: {fileID: 101662295023829147, guid: f6a06c1fb7e75e5428800b34f3de01f3,
        type: 3}
      propertyPath: m_Padding.m_Right
      value: 5
      objectReference: {fileID: 0}
    - target: {fileID: 101662295023829147, guid: f6a06c1fb7e75e5428800b34f3de01f3,
        type: 3}
      propertyPath: m_Padding.m_Bottom
      value: 5
      objectReference: {fileID: 0}
    - target: {fileID: 101662295023829147, guid: f6a06c1fb7e75e5428800b34f3de01f3,
        type: 3}
      propertyPath: m_ChildControlHeight
      value: 1
      objectReference: {fileID: 0}
    - target: {fileID: 101662295023829147, guid: f6a06c1fb7e75e5428800b34f3de01f3,
        type: 3}
      propertyPath: m_ChildForceExpandHeight
      value: 1
      objectReference: {fileID: 0}
    - target: {fileID: 129247332420826995, guid: f6a06c1fb7e75e5428800b34f3de01f3,
        type: 3}
      propertyPath: m_AnchorMax.x
      value: 0
      objectReference: {fileID: 0}
    - target: {fileID: 129247332420826995, guid: f6a06c1fb7e75e5428800b34f3de01f3,
        type: 3}
      propertyPath: m_AnchorMax.y
      value: 0
      objectReference: {fileID: 0}
    - target: {fileID: 784926943101524740, guid: f6a06c1fb7e75e5428800b34f3de01f3,
        type: 3}
      propertyPath: m_Name
      value: DebugConsole Variant
      objectReference: {fileID: 0}
    - target: {fileID: 784926943101524740, guid: f6a06c1fb7e75e5428800b34f3de01f3,
        type: 3}
      propertyPath: m_IsActive
      value: 1
      objectReference: {fileID: 0}
    - target: {fileID: 2157629075094973303, guid: f6a06c1fb7e75e5428800b34f3de01f3,
        type: 3}
      propertyPath: m_SizeDelta.y
      value: 0
      objectReference: {fileID: 0}
    - target: {fileID: 2366608597627344279, guid: f6a06c1fb7e75e5428800b34f3de01f3,
        type: 3}
      propertyPath: m_SizeDelta.x
      value: 11.068
      objectReference: {fileID: 0}
    - target: {fileID: 2366608597627344279, guid: f6a06c1fb7e75e5428800b34f3de01f3,
        type: 3}
      propertyPath: m_SizeDelta.y
      value: -0
      objectReference: {fileID: 0}
    - target: {fileID: 2886393423654043626, guid: f6a06c1fb7e75e5428800b34f3de01f3,
        type: 3}
      propertyPath: m_AnchorMax.x
      value: 0
      objectReference: {fileID: 0}
    - target: {fileID: 2886393423654043626, guid: f6a06c1fb7e75e5428800b34f3de01f3,
        type: 3}
      propertyPath: m_AnchorMax.y
      value: 0
      objectReference: {fileID: 0}
    - target: {fileID: 2886393423654043626, guid: f6a06c1fb7e75e5428800b34f3de01f3,
        type: 3}
      propertyPath: m_SizeDelta.x
      value: 0
      objectReference: {fileID: 0}
    - target: {fileID: 3025640368448082716, guid: f6a06c1fb7e75e5428800b34f3de01f3,
        type: 3}
      propertyPath: m_Color.a
      value: 0.92156863
      objectReference: {fileID: 0}
    - target: {fileID: 3025640368448082716, guid: f6a06c1fb7e75e5428800b34f3de01f3,
        type: 3}
      propertyPath: m_Color.b
      value: 0.254717
      objectReference: {fileID: 0}
    - target: {fileID: 3025640368448082716, guid: f6a06c1fb7e75e5428800b34f3de01f3,
        type: 3}
      propertyPath: m_Color.g
      value: 0.254717
      objectReference: {fileID: 0}
    - target: {fileID: 3025640368448082716, guid: f6a06c1fb7e75e5428800b34f3de01f3,
        type: 3}
      propertyPath: m_Color.r
      value: 0.254717
      objectReference: {fileID: 0}
    - target: {fileID: 6240443346295500247, guid: f6a06c1fb7e75e5428800b34f3de01f3,
        type: 3}
      propertyPath: m_Pivot.x
      value: 0.5
      objectReference: {fileID: 0}
    - target: {fileID: 6240443346295500247, guid: f6a06c1fb7e75e5428800b34f3de01f3,
        type: 3}
      propertyPath: m_Pivot.y
      value: 0.5
      objectReference: {fileID: 0}
    - target: {fileID: 6240443346295500247, guid: f6a06c1fb7e75e5428800b34f3de01f3,
        type: 3}
      propertyPath: m_RootOrder
      value: 0
      objectReference: {fileID: 0}
    - target: {fileID: 6240443346295500247, guid: f6a06c1fb7e75e5428800b34f3de01f3,
        type: 3}
      propertyPath: m_AnchorMax.x
      value: 1
      objectReference: {fileID: 0}
    - target: {fileID: 6240443346295500247, guid: f6a06c1fb7e75e5428800b34f3de01f3,
        type: 3}
      propertyPath: m_AnchorMax.y
      value: 0
      objectReference: {fileID: 0}
    - target: {fileID: 6240443346295500247, guid: f6a06c1fb7e75e5428800b34f3de01f3,
        type: 3}
      propertyPath: m_AnchorMin.x
      value: 0
      objectReference: {fileID: 0}
    - target: {fileID: 6240443346295500247, guid: f6a06c1fb7e75e5428800b34f3de01f3,
        type: 3}
      propertyPath: m_AnchorMin.y
      value: 0
      objectReference: {fileID: 0}
    - target: {fileID: 6240443346295500247, guid: f6a06c1fb7e75e5428800b34f3de01f3,
        type: 3}
      propertyPath: m_SizeDelta.x
      value: -22
      objectReference: {fileID: 0}
    - target: {fileID: 6240443346295500247, guid: f6a06c1fb7e75e5428800b34f3de01f3,
        type: 3}
      propertyPath: m_SizeDelta.y
      value: 100
      objectReference: {fileID: 0}
    - target: {fileID: 6240443346295500247, guid: f6a06c1fb7e75e5428800b34f3de01f3,
        type: 3}
      propertyPath: m_LocalPosition.x
      value: 0
      objectReference: {fileID: 0}
    - target: {fileID: 6240443346295500247, guid: f6a06c1fb7e75e5428800b34f3de01f3,
        type: 3}
      propertyPath: m_LocalPosition.y
      value: 0
      objectReference: {fileID: 0}
    - target: {fileID: 6240443346295500247, guid: f6a06c1fb7e75e5428800b34f3de01f3,
        type: 3}
      propertyPath: m_LocalPosition.z
      value: 0
      objectReference: {fileID: 0}
    - target: {fileID: 6240443346295500247, guid: f6a06c1fb7e75e5428800b34f3de01f3,
        type: 3}
      propertyPath: m_LocalRotation.w
      value: 1
      objectReference: {fileID: 0}
    - target: {fileID: 6240443346295500247, guid: f6a06c1fb7e75e5428800b34f3de01f3,
        type: 3}
      propertyPath: m_LocalRotation.x
      value: -0
      objectReference: {fileID: 0}
    - target: {fileID: 6240443346295500247, guid: f6a06c1fb7e75e5428800b34f3de01f3,
        type: 3}
      propertyPath: m_LocalRotation.y
      value: -0
      objectReference: {fileID: 0}
    - target: {fileID: 6240443346295500247, guid: f6a06c1fb7e75e5428800b34f3de01f3,
        type: 3}
      propertyPath: m_LocalRotation.z
      value: -0
      objectReference: {fileID: 0}
    - target: {fileID: 6240443346295500247, guid: f6a06c1fb7e75e5428800b34f3de01f3,
        type: 3}
      propertyPath: m_AnchoredPosition.x
      value: 11
      objectReference: {fileID: 0}
    - target: {fileID: 6240443346295500247, guid: f6a06c1fb7e75e5428800b34f3de01f3,
        type: 3}
      propertyPath: m_AnchoredPosition.y
      value: 50
      objectReference: {fileID: 0}
    - target: {fileID: 6240443346295500247, guid: f6a06c1fb7e75e5428800b34f3de01f3,
        type: 3}
      propertyPath: m_LocalEulerAnglesHint.x
      value: 0
      objectReference: {fileID: 0}
    - target: {fileID: 6240443346295500247, guid: f6a06c1fb7e75e5428800b34f3de01f3,
        type: 3}
      propertyPath: m_LocalEulerAnglesHint.y
      value: 0
      objectReference: {fileID: 0}
    - target: {fileID: 6240443346295500247, guid: f6a06c1fb7e75e5428800b34f3de01f3,
        type: 3}
      propertyPath: m_LocalEulerAnglesHint.z
      value: 0
      objectReference: {fileID: 0}
    m_RemovedComponents: []
  m_SourcePrefab: {fileID: 100100000, guid: f6a06c1fb7e75e5428800b34f3de01f3, type: 3}
--- !u!224 &2346234735198553461 stripped
RectTransform:
  m_CorrespondingSourceObject: {fileID: 2157629075094973303, guid: f6a06c1fb7e75e5428800b34f3de01f3,
    type: 3}
  m_PrefabInstance: {fileID: 4431243214693232130}
  m_PrefabAsset: {fileID: 0}
