%YAML 1.1
%TAG !u! tag:unity3d.com,2011:
--- !u!21 &2100000
Material:
  serializedVersion: 6
  m_ObjectHideFlags: 0
  m_CorrespondingSourceObject: {fileID: 0}
  m_PrefabInstance: {fileID: 0}
  m_PrefabAsset: {fileID: 0}
  m_Name: Rough Textured Metal
  m_Shader: {fileID: 4800000, guid: bb0f8595ac8946642888596b3654f42b, type: 3}
  m_ShaderKeywords: 
  m_LightmapFlags: 5
  m_EnableInstancingVariants: 0
  m_DoubleSidedGI: 0
  m_CustomRenderQueue: -1
  stringTagMap: {}
  disabledShaderPasses: []
  m_SavedProperties:
    serializedVersion: 3
    m_TexEnvs:
    - _CoatMap:
        m_Texture: {fileID: 0}
        m_Scale: {x: 2, y: 2}
        m_Offset: {x: 0, y: 0}
    - _LocalTex:
        m_Texture: {fileID: 2800000, guid: 4694c4741adb55e41b2c16ab68f7fc88, type: 3}
        m_Scale: {x: 2, y: 2}
        m_Offset: {x: 0, y: 0}
    - _MainTex:
        m_Texture: {fileID: 2800000, guid: b7612627fe2834a45abd0dcf8c02cda8, type: 3}
        m_Scale: {x: 4, y: 4}
        m_Offset: {x: 0, y: 0}
    - _MetalMap:
        m_Texture: {fileID: 2800000, guid: 36182911a09573c43b15bbfa27428c6a, type: 3}
        m_Scale: {x: 4, y: 4}
        m_Offset: {x: 0, y: 0}
    - _NormalMap:
        m_Texture: {fileID: 2800000, guid: 2cd52e052f1cfff44b14988610aae762, type: 3}
        m_Scale: {x: 4, y: 4}
        m_Offset: {x: 0, y: 0}
    - _RSRM:
        m_Texture: {fileID: 2800000, guid: bf21049403d897040b6ef80abe676591, type: 3}
        m_Scale: {x: 1, y: 1}
        m_Offset: {x: 0, y: 0}
    - _SmoothMap:
        m_Texture: {fileID: 2800000, guid: f556ac1fff90b504d8a8d6cca2c47706, type: 3}
        m_Scale: {x: 2, y: 2}
        m_Offset: {x: 0, y: 0}
    m_Floats:
    - _BaseReflect: 0
    - _BumpDepth: 1.2142859
    - _Coat: 0
    - _CoatSmooth: 12
    - _Gloss: -1.3
    - _Metalicity: 1
    - _Metallicity: 0.9285714
    - _RimPow: 1
    - _Smoothness: 12
    - _Wrap: 0.2
    m_Colors:
    - _Color: {r: 0.5, g: 0.5, b: 0.5, a: 0.5}
    - _DifColor: {r: 0.004921184, g: 0.022530874, b: 0.078431375, a: 1}
    - _LocalColor: {r: 1, g: 1, b: 1, a: 0.5019608}
    - _MainColor: {r: 1, g: 1, b: 1, a: 1}
    - _SpecColor: {r: 0.2745098, g: 0.5574306, b: 1, a: 1}
  m_BuildTextureStacks: []
