%YAML 1.1
%TAG !u! tag:unity3d.com,2011:
--- !u!1001 &3754367093409289607
PrefabInstance:
  m_ObjectHideFlags: 0
  serializedVersion: 2
  m_Modification:
    m_TransformParent: {fileID: 0}
    m_Modifications:
    - target: {fileID: 3613563227576398018, guid: d9f6ef9d5c2261245a177b4a8092efa9,
        type: 3}
      propertyPath: m_IsActive
      value: 0
      objectReference: {fileID: 0}
    - target: {fileID: 4202079475737671531, guid: d9f6ef9d5c2261245a177b4a8092efa9,
        type: 3}
      propertyPath: m_Pivot.x
      value: 0.5
      objectReference: {fileID: 0}
    - target: {fileID: 4202079475737671531, guid: d9f6ef9d5c2261245a177b4a8092efa9,
        type: 3}
      propertyPath: m_Pivot.y
      value: 0.5
      objectReference: {fileID: 0}
    - target: {fileID: 4202079475737671531, guid: d9f6ef9d5c2261245a177b4a8092efa9,
        type: 3}
      propertyPath: m_RootOrder
      value: 0
      objectReference: {fileID: 0}
    - target: {fileID: 4202079475737671531, guid: d9f6ef9d5c2261245a177b4a8092efa9,
        type: 3}
      propertyPath: m_AnchorMax.x
      value: 0
      objectReference: {fileID: 0}
    - target: {fileID: 4202079475737671531, guid: d9f6ef9d5c2261245a177b4a8092efa9,
        type: 3}
      propertyPath: m_AnchorMax.y
      value: 0
      objectReference: {fileID: 0}
    - target: {fileID: 4202079475737671531, guid: d9f6ef9d5c2261245a177b4a8092efa9,
        type: 3}
      propertyPath: m_AnchorMin.x
      value: 0
      objectReference: {fileID: 0}
    - target: {fileID: 4202079475737671531, guid: d9f6ef9d5c2261245a177b4a8092efa9,
        type: 3}
      propertyPath: m_AnchorMin.y
      value: 0
      objectReference: {fileID: 0}
    - target: {fileID: 4202079475737671531, guid: d9f6ef9d5c2261245a177b4a8092efa9,
        type: 3}
      propertyPath: m_SizeDelta.x
      value: 100
      objectReference: {fileID: 0}
    - target: {fileID: 4202079475737671531, guid: d9f6ef9d5c2261245a177b4a8092efa9,
        type: 3}
      propertyPath: m_SizeDelta.y
      value: 100
      objectReference: {fileID: 0}
    - target: {fileID: 4202079475737671531, guid: d9f6ef9d5c2261245a177b4a8092efa9,
        type: 3}
      propertyPath: m_LocalPosition.x
      value: 0
      objectReference: {fileID: 0}
    - target: {fileID: 4202079475737671531, guid: d9f6ef9d5c2261245a177b4a8092efa9,
        type: 3}
      propertyPath: m_LocalPosition.y
      value: 0
      objectReference: {fileID: 0}
    - target: {fileID: 4202079475737671531, guid: d9f6ef9d5c2261245a177b4a8092efa9,
        type: 3}
      propertyPath: m_LocalPosition.z
      value: 0
      objectReference: {fileID: 0}
    - target: {fileID: 4202079475737671531, guid: d9f6ef9d5c2261245a177b4a8092efa9,
        type: 3}
      propertyPath: m_LocalRotation.w
      value: 1
      objectReference: {fileID: 0}
    - target: {fileID: 4202079475737671531, guid: d9f6ef9d5c2261245a177b4a8092efa9,
        type: 3}
      propertyPath: m_LocalRotation.x
      value: 0
      objectReference: {fileID: 0}
    - target: {fileID: 4202079475737671531, guid: d9f6ef9d5c2261245a177b4a8092efa9,
        type: 3}
      propertyPath: m_LocalRotation.y
      value: 0
      objectReference: {fileID: 0}
    - target: {fileID: 4202079475737671531, guid: d9f6ef9d5c2261245a177b4a8092efa9,
        type: 3}
      propertyPath: m_LocalRotation.z
      value: 0
      objectReference: {fileID: 0}
    - target: {fileID: 4202079475737671531, guid: d9f6ef9d5c2261245a177b4a8092efa9,
        type: 3}
      propertyPath: m_AnchoredPosition.x
      value: 0
      objectReference: {fileID: 0}
    - target: {fileID: 4202079475737671531, guid: d9f6ef9d5c2261245a177b4a8092efa9,
        type: 3}
      propertyPath: m_AnchoredPosition.y
      value: 0
      objectReference: {fileID: 0}
    - target: {fileID: 4202079475737671531, guid: d9f6ef9d5c2261245a177b4a8092efa9,
        type: 3}
      propertyPath: m_LocalEulerAnglesHint.x
      value: 0
      objectReference: {fileID: 0}
    - target: {fileID: 4202079475737671531, guid: d9f6ef9d5c2261245a177b4a8092efa9,
        type: 3}
      propertyPath: m_LocalEulerAnglesHint.y
      value: 0
      objectReference: {fileID: 0}
    - target: {fileID: 4202079475737671531, guid: d9f6ef9d5c2261245a177b4a8092efa9,
        type: 3}
      propertyPath: m_LocalEulerAnglesHint.z
      value: 0
      objectReference: {fileID: 0}
    - target: {fileID: 4231335204491146038, guid: d9f6ef9d5c2261245a177b4a8092efa9,
        type: 3}
      propertyPath: m_Name
      value: Empty3DImageObject
      objectReference: {fileID: 0}
    - target: {fileID: 4891235947205078291, guid: d9f6ef9d5c2261245a177b4a8092efa9,
        type: 3}
      propertyPath: m_IsActive
      value: 0
      objectReference: {fileID: 0}
    - target: {fileID: 4939985914316071056, guid: d9f6ef9d5c2261245a177b4a8092efa9,
        type: 3}
      propertyPath: m_IsActive
      value: 0
      objectReference: {fileID: 0}
    - target: {fileID: 5404859572385735650, guid: d9f6ef9d5c2261245a177b4a8092efa9,
        type: 3}
      propertyPath: m_IsActive
      value: 0
      objectReference: {fileID: 0}
    - target: {fileID: 5949272679437391962, guid: d9f6ef9d5c2261245a177b4a8092efa9,
        type: 3}
      propertyPath: m_Color.a
      value: 0.2
      objectReference: {fileID: 0}
    m_RemovedComponents:
    - {fileID: 3683810506229340297, guid: d9f6ef9d5c2261245a177b4a8092efa9, type: 3}
  m_SourcePrefab: {fileID: 100100000, guid: d9f6ef9d5c2261245a177b4a8092efa9, type: 3}
--- !u!1 &1054554839060522673 stripped
GameObject:
  m_CorrespondingSourceObject: {fileID: 4231335204491146038, guid: d9f6ef9d5c2261245a177b4a8092efa9,
    type: 3}
  m_PrefabInstance: {fileID: 3754367093409289607}
  m_PrefabAsset: {fileID: 0}
--- !u!114 &7388787416055598557 stripped
MonoBehaviour:
  m_CorrespondingSourceObject: {fileID: 5949272679437391962, guid: d9f6ef9d5c2261245a177b4a8092efa9,
    type: 3}
  m_PrefabInstance: {fileID: 3754367093409289607}
  m_PrefabAsset: {fileID: 0}
  m_GameObject: {fileID: 1054554839060522673}
  m_Enabled: 1
  m_EditorHideFlags: 0
  m_Script: {fileID: 11500000, guid: fe87c0e1cc204ed48ad3b37840f39efc, type: 3}
  m_Name: 
  m_EditorClassIdentifier: 
--- !u!114 &7285263808748343126
MonoBehaviour:
  m_ObjectHideFlags: 0
  m_CorrespondingSourceObject: {fileID: 0}
  m_PrefabInstance: {fileID: 0}
  m_PrefabAsset: {fileID: 0}
  m_GameObject: {fileID: 1054554839060522673}
  m_Enabled: 1
  m_EditorHideFlags: 0
  m_Script: {fileID: 11500000, guid: b4386f050aac7f546b03af8d3b7c586f, type: 3}
  m_Name: 
  m_EditorClassIdentifier: 
  _Background: {fileID: 7388787416055598557}
