%YAML 1.1
%TAG !u! tag:unity3d.com,2011:
--- !u!21 &2100000
Material:
  serializedVersion: 6
  m_ObjectHideFlags: 0
  m_CorrespondingSourceObject: {fileID: 0}
  m_PrefabInstance: {fileID: 0}
  m_PrefabAsset: {fileID: 0}
  m_Name: Green Velvet
  m_Shader: {fileID: 4800000, guid: c7f7ceb2fbff5b144b64c4785e06c0dd, type: 3}
  m_ShaderKeywords: 
  m_LightmapFlags: 4
  m_EnableInstancingVariants: 0
  m_DoubleSidedGI: 0
  m_CustomRenderQueue: -1
  stringTagMap: {}
  disabledShaderPasses: []
  m_SavedProperties:
    serializedVersion: 3
    m_TexEnvs:
    - _CoatMap:
        m_Texture: {fileID: 0}
        m_Scale: {x: 1, y: 1}
        m_Offset: {x: 0, y: 0}
    - _LocalTex:
        m_Texture: {fileID: 0}
        m_Scale: {x: 2, y: 2}
        m_Offset: {x: 0, y: 0}
    - _MainTex:
        m_Texture: {fileID: 2800000, guid: 182ec296cd0116d46b51d787dbf677f3, type: 3}
        m_Scale: {x: 6, y: 6}
        m_Offset: {x: 0, y: 0}
    - _MetalMap:
        m_Texture: {fileID: 0}
        m_Scale: {x: 1, y: 1}
        m_Offset: {x: 0, y: 0}
    - _NormalMap:
        m_Texture: {fileID: 0}
        m_Scale: {x: 2, y: 2}
        m_Offset: {x: 0, y: 0}
    - _RSRM:
        m_Texture: {fileID: 2800000, guid: bf21049403d897040b6ef80abe676591, type: 3}
        m_Scale: {x: 1, y: 1}
        m_Offset: {x: 0, y: 0}
    - _RetroMap:
        m_Texture: {fileID: 2800000, guid: 36182911a09573c43b15bbfa27428c6a, type: 3}
        m_Scale: {x: 4, y: 4}
        m_Offset: {x: 0, y: 0}
    - _SmoothMap:
        m_Texture: {fileID: 2800000, guid: 9480061e424016c4cbec3526a748d01d, type: 3}
        m_Scale: {x: 4, y: 4}
        m_Offset: {x: 0, y: 0}
    m_Floats:
    - _BaseReflect: 0.17857145
    - _BaseRelfect: 234.1
    - _BumpDepth: 0.1
    - _Coat: 0
    - _CoatSmooth: 12
    - _Gloss: 2.96
    - _Metalicity: 0.16071427
    - _Metallicity: 0
    - _Retro: 1
    - _RimGauss: 1
    - _RimPower: 8
    - _Smoothness: 1
    - _Wrap: 0.5
    m_Colors:
    - _DifColor: {r: 1, g: 0, b: 0, a: 0.54509807}
    - _LocalColor: {r: 0.7058824, g: 0.38754326, b: 0.38754326, a: 0.5019608}
    - _MainColor: {r: 0.21541044, g: 0.72156864, b: 0.20090733, a: 0.5019608}
    - _RimColor: {r: 0.20392156, g: 0.62080944, b: 1, a: 1}
    - _SpecColor: {r: 1, g: 0.6183844, b: 0, a: 1}
  m_BuildTextureStacks: []
