%YAML 1.1
%TAG !u! tag:unity3d.com,2011:
--- !u!21 &2100000
Material:
  serializedVersion: 6
  m_ObjectHideFlags: 0
  m_CorrespondingSourceObject: {fileID: 0}
  m_PrefabInstance: {fileID: 0}
  m_PrefabAsset: {fileID: 0}
  m_Name: Rough Copper
  m_Shader: {fileID: 4800000, guid: bb0f8595ac8946642888596b3654f42b, type: 3}
  m_ShaderKeywords: 
  m_LightmapFlags: 5
  m_EnableInstancingVariants: 0
  m_DoubleSidedGI: 0
  m_CustomRenderQueue: -1
  stringTagMap: {}
  disabledShaderPasses: []
  m_SavedProperties:
    serializedVersion: 3
    m_TexEnvs:
    - _LocalTex:
        m_Texture: {fileID: 2800000, guid: c823021f2c374e6489ef3581bdd9abab, type: 3}
        m_Scale: {x: 2, y: 2}
        m_Offset: {x: 0, y: 0}
    - _MainTex:
        m_Texture: {fileID: 0}
        m_Scale: {x: 1, y: 1}
        m_Offset: {x: 0, y: 0}
    - _MetalMap:
        m_Texture: {fileID: 0}
        m_Scale: {x: 1, y: 1}
        m_Offset: {x: 0, y: 0}
    - _NormalMap:
        m_Texture: {fileID: 2800000, guid: e6a78b5201f9b624f9aebf9d4ed401bf, type: 3}
        m_Scale: {x: 4, y: 4}
        m_Offset: {x: 0, y: 0}
    - _RSRM:
        m_Texture: {fileID: 2800000, guid: 944e8e0b6dd0b90428d285d60d275efa, type: 3}
        m_Scale: {x: 1, y: 1}
        m_Offset: {x: 0, y: 0}
    - _SmoothMap:
        m_Texture: {fileID: 2800000, guid: c823021f2c374e6489ef3581bdd9abab, type: 3}
        m_Scale: {x: 2, y: 2}
        m_Offset: {x: 0, y: 0}
    m_Floats:
    - _BumpDepth: 0.23928572
    - _Metalicity: 1
    - _Metallicity: 0
    - _Smoothness: 12
    - _Wrap: 0.7
    m_Colors:
    - _Color: {r: 1, g: 1, b: 1, a: 1}
    - _LocalColor: {r: 0.9558824, g: 0.6999462, b: 0.53416955, a: 0.5019608}
    - _MainColor: {r: 0.9960785, g: 0.9960785, b: 0.9960785, a: 0.5019608}
  m_BuildTextureStacks: []
