g frustum1.2
v 0.000000 0.000000 -10.000000
v 0.000000 10.000000 -12.000000
v 7.071000 0.000000 -7.071000
v 8.485000 10.000000 -8.485000
v 10.000000 0.000000 0.000000
v 12.000000 10.000000 0.000000
v 7.071000 0.000000 7.071000
v 8.485000 10.000000 8.485000
v -0.000000 0.000000 10.000000
v -0.000000 10.000000 12.000000
v -7.071000 0.000000 7.071000
v -8.485000 10.000000 8.485000
v -10.000000 0.000000 -0.000000
v -12.000000 10.000000 -0.000000
v -7.071000 0.000000 -7.071000
v -8.485000 10.000000 -8.485000
f 3 1 2
f 3 2 4
f 5 3 4
f 5 4 6
f 7 5 6
f 7 6 8
f 9 7 8
f 9 8 10
f 11 9 10
f 11 10 12
f 13 11 12
f 13 12 14
f 15 13 14
f 15 14 16
f 1 15 16
f 1 16 2
